Personal,"Hora Entrada","Hora Salida",Fecha,Sede,"Estado Entrada",Atenciones
"josimar  mamani amanqui",00:00:00,00:00:00,2018-07-09,"La Perla",Falta,
"josimar  mamani amanqui",00:00:00,00:00:00,2018-07-09,"La Perla",Falta,
"josimar  mamani amanqui",23:08:53,00:00:00,2018-07-09,"La Perla",Reemplazo,
"josimar  mamani amanqui",00:00:00,18:11:53,2018-07-09,"La Perla",,
"josimar  mamani amanqui",18:11:55,00:00:00,2018-07-09,"La Perla",Reingreso,
"josimar  mamani amanqui",00:00:00,18:11:57,2018-07-09,"La Perla",,
